%YAML 1.1
%TAG !u! tag:unity3d.com,2011:
--- !u!1001 &773956213974140028
PrefabInstance:
  m_ObjectHideFlags: 0
  serializedVersion: 2
  m_Modification:
    m_TransformParent: {fileID: 0}
    m_Modifications:
    - target: {fileID: 7443102396863106323, guid: 99463d693c70d7e15a2a2a76982d0e59, type: 3}
      propertyPath: m_Name
      value: RockGroundSnow
      objectReference: {fileID: 0}
    - target: {fileID: 7443102396863106326, guid: 99463d693c70d7e15a2a2a76982d0e59, type: 3}
      propertyPath: m_Sprite
      value: 
      objectReference: {fileID: 21300000, guid: fe4d0c8970a53764bb8204882777e353, type: 3}
    - target: {fileID: 7443102396863106327, guid: 99463d693c70d7e15a2a2a76982d0e59, type: 3}
      propertyPath: m_RootOrder
      value: 0
      objectReference: {fileID: 0}
    - target: {fileID: 7443102396863106327, guid: 99463d693c70d7e15a2a2a76982d0e59, type: 3}
      propertyPath: m_LocalPosition.x
      value: 10
      objectReference: {fileID: 0}
    - target: {fileID: 7443102396863106327, guid: 99463d693c70d7e15a2a2a76982d0e59, type: 3}
      propertyPath: m_LocalPosition.y
      value: -2.3
      objectReference: {fileID: 0}
    - target: {fileID: 7443102396863106327, guid: 99463d693c70d7e15a2a2a76982d0e59, type: 3}
      propertyPath: m_LocalPosition.z
      value: 0
      objectReference: {fileID: 0}
    - target: {fileID: 7443102396863106327, guid: 99463d693c70d7e15a2a2a76982d0e59, type: 3}
      propertyPath: m_LocalRotation.w
      value: 1
      objectReference: {fileID: 0}
    - target: {fileID: 7443102396863106327, guid: 99463d693c70d7e15a2a2a76982d0e59, type: 3}
      propertyPath: m_LocalRotation.x
      value: 0
      objectReference: {fileID: 0}
    - target: {fileID: 7443102396863106327, guid: 99463d693c70d7e15a2a2a76982d0e59, type: 3}
      propertyPath: m_LocalRotation.y
      value: 0
      objectReference: {fileID: 0}
    - target: {fileID: 7443102396863106327, guid: 99463d693c70d7e15a2a2a76982d0e59, type: 3}
      propertyPath: m_LocalRotation.z
      value: 0
      objectReference: {fileID: 0}
    - target: {fileID: 7443102396863106327, guid: 99463d693c70d7e15a2a2a76982d0e59, type: 3}
      propertyPath: m_LocalEulerAnglesHint.x
      value: 0
      objectReference: {fileID: 0}
    - target: {fileID: 7443102396863106327, guid: 99463d693c70d7e15a2a2a76982d0e59, type: 3}
      propertyPath: m_LocalEulerAnglesHint.y
      value: 0
      objectReference: {fileID: 0}
    - target: {fileID: 7443102396863106327, guid: 99463d693c70d7e15a2a2a76982d0e59, type: 3}
      propertyPath: m_LocalEulerAnglesHint.z
      value: 0
      objectReference: {fileID: 0}
    m_RemovedComponents: []
  m_SourcePrefab: {fileID: 100100000, guid: 99463d693c70d7e15a2a2a76982d0e59, type: 3}
